R for Assessment Specialists: Part 1: Introducing dplyr and tidyr
…
Selecting columns and filtering rows

To select columns of a
data frame, use select(). The first argument to this function is the data
frame (test_results_1), and the subsequent arguments are the columns to keep.

select(test_results_1, country, raw_total)

To choose rows based on a specific criteria, use filter():

filter(test_results_1, country == "china")

# A tibble: 36 x 76
      ID names country admin_date          q1_list_mi q2_list_det
   <dbl> <chr> <fct>   <dttm>                   <dbl>       <dbl>
 1   635 JUDr… china   1960-12-25 22:02:34          1           1
 2   636 pan … china   1985-10-07 21:18:00          0           1
 3   637 Nadě… china   1987-12-22 17:04:22          1           0
 4   638 Mári… china   1983-10-31 10:23:45          0           1
 5   639 MUDr… china   1930-12-28 11:00:55          1           1
 6   640 Anež… china   1978-08-16 01:04:50          1           0
 7   641 Magd… china   2011-01-12 04:11:12          0           1
 8   642 Alžb… china   1977-11-19 01:12:51          0           0
 9   643 Lubo… china   2012-07-30 10:15:54          0           0
10   644 Sára… china   1963-05-19 22:58:51          0           1
# … with 26 more rows, and 70 more variables: q3_list_det <dbl>,
#   q4_list_det <dbl>, q5_list_det <dbl>, q6_list_det <dbl>,
#   q7_list_det <dbl>, q8_list_det <dbl>, q9_list_det <dbl>,
#   q10_list_mi <dbl>, q11_list_det <dbl>, q12_list_mi <dbl>,
#   q13_list_prag <dbl>, q14_list_det <dbl>, q15_list_det <dbl>,
#   q16_list_det <dbl>, q17_list_inf <dbl>, q18_list_inf <dbl>,
#   q19_list_det <dbl>, q20_list_mi <dbl>, q21_list_det <dbl>,
#   q22_list_prag <dbl>, q23_list_mi <dbl>, q24_list_det <dbl>,
#   q25_list_prag <dbl>, q26_list_det_an <dbl>, q27_list_det_an <dbl>,
…
The ! symbol negates the result; we can use that to filter out all
test takers from China.

filter(test_results_1, country != 'china')

# A tibble: 52 x 76
      ID names country admin_date          q1_list_mi q2_list_det
   <dbl> <chr> <fct>   <dttm>                   <dbl>       <dbl>
 1   671 Deni… morocco 1950-02-04 19:06:32          1           1
 2   672 Bože… morocco 1998-08-20 22:56:09          0           1
 3   673 Pavl… morocco 2018-07-15 11:01:39          1           1
 4   674 Patr… morocco 1963-05-14 02:37:10          1           1
 5   675 Maty… morocco 2006-09-19 11:46:42          1           0
 6   676 Vlad… morocco 1929-12-15 00:30:38          1           1
 7   677 Milu… morocco 1961-02-22 22:13:36          0           0
 8   678 Niko… morocco 1986-01-08 07:12:44          0           1
 9   679 Ing.… morocco 2005-04-08 10:43:11          1           0
10   680 Davi… morocco 2002-03-14 20:02:29          1           1
# … with 42 more rows, and 70 more variables: q3_list_det <dbl>,
#   q4_list_det <dbl>, q5_list_det <dbl>, q6_list_det <dbl>,
#   q7_list_det <dbl>, q8_list_det <dbl>, q9_list_det <dbl>,
#   q10_list_mi <dbl>, q11_list_det <dbl>, q12_list_mi <dbl>,
#   q13_list_prag <dbl>, q14_list_det <dbl>, q15_list_det <dbl>,
#   q16_list_det <dbl>, q17_list_inf <dbl>, q18_list_inf <dbl>,
#   q19_list_det <dbl>, q20_list_mi <dbl>, q21_list_det <dbl>,
#   q22_list_prag <dbl>, q23_list_mi <dbl>, q24_list_det <dbl>,
#   q25_list_prag <dbl>, q26_list_det_an <dbl>, q27_list_det_an <dbl>,
…
We can also select columns based on their names or on partial matches to their names.
If we wanted only the listening test items:

select(test_results_1, contains("_list_"))

# A tibble: 88 x 35
   q1_list_mi q2_list_det q3_list_det q4_list_det q5_list_det q6_list_det
        <dbl>       <dbl>       <dbl>       <dbl>       <dbl>       <dbl>
 1          1           1           1           0           0           1
 2          0           1           1           0           0           1
 3          1           0           1           0           1           1
 4          0           1           1           1           1           1
 5          1           1           0           1           0           1
 6          1           0           1           1           0           1
 7          0           1           0           0           0           1
 8          0           0           0           1           0           1
 9          0           0           0           1           0           1
10          0           1           0           0           0           1
# … with 78 more rows, and 29 more variables: q7_list_det <dbl>,
#   q8_list_det <dbl>, q9_list_det <dbl>, q10_list_mi <dbl>,
#   q11_list_det <dbl>, q12_list_mi <dbl>, q13_list_prag <dbl>,
#   q14_list_det <dbl>, q15_list_det <dbl>, q16_list_det <dbl>,
#   q17_list_inf <dbl>, q18_list_inf <dbl>, q19_list_det <dbl>,
#   q20_list_mi <dbl>, q21_list_det <dbl>, q22_list_prag <dbl>,
#   q23_list_mi <dbl>, q24_list_det <dbl>, q25_list_prag <dbl>,
#   q26_list_det_an <dbl>, q27_list_det_an <dbl>, q28_list_det_an <dbl>,
#   q29_list_prag_an <dbl>, q30_list_mi_an <dbl>, q31_list_mi_an <dbl>,
…
Pipes are a recent addition to R. Pipes let you take the
output of one function and send it directly to the next, which is useful when
you need to do many things to the same dataset. Pipes in R look like %>% and
are made available via the magrittr package, installed automatically with
dplyr. If you use RStudio, you can type the pipe with Ctrl

  Shift + M if you have a PC or Cmd +
Shift + M if you have a Mac.

test_results_1 %>%
    filter(country == "china") %>%
    select(country, raw_total)

# A tibble: 36 x 2
   country raw_total
   <fct>       <dbl>
 1 china          38
 2 china          32
 3 china          32
 4 china          49
 5 china          38
 6 china          36
 7 china          37
 8 china          39
 9 china          37
10 china          34
# … with 26 more rows
…
If we want to create a new object with this smaller version of the data, we
can assign it a new name:

test_results_china <- test_results_1 %>%
    filter(country == "china") %>%
    select(country, raw_total)

test_results_china

# A tibble: 36 x 2
   country raw_total
   <fct>       <dbl>
 1 china          38
 2 china          32
 3 china          32
 4 china          49
 5 china          38
 6 china          36
 7 china          37
 8 china          39
 9 china          37
10 china          34
# … with 26 more rows
…
You can also filter numerical data using other logical operators (such as >, <=). 
For example, if you wanted data from test takers who scored above a certain score.

test_results_70 <- test_results_1 %>%
    filter(percent_total >= 70) %>%
    select(country, percent_total)

test_results_70

# A tibble: 26 x 2
   country percent_total
   <fct>           <dbl>
 1 china            70  
 2 china            87.1
 3 china            80  
 4 china            72.9
 5 china            77.1
 6 china            70  
 7 china            74.3
 8 china            72.9
 9 china            85.7
10 china            81.4
# … with 16 more rows
…
  Exercise

  Using pipes, create a read_raw_total column in our dataframe. Then select all of the columns
that contain raw scores.

    Solution

test_results_1 <- test_results_1 %>% 
 mutate(read_raw_total = rowSums(select(., contains("_read_")))) 

test_results_1 %>%
 select(., contains("raw"))

# A tibble: 88 x 3
   raw_total list_raw_total read_raw_total
       <dbl>          <dbl>          <dbl>
 1        38             20             18
 2        32             13             19
 3        32             20             12
 4        49             28             21
 5        38             20             18
 6        36             19             17
 7        37             16             21
 8        39             20             19
 9        37             20             17
10        34             20             14
# … with 78 more rows
…
  the key column variable we wish to create from column names.

  the value column variable we wish to create and fill with values
associated with the key.

  the names of the columns we use to fill the key variable (or to drop).

test_results_1_long <- test_results_1 %>%
  select(ID, country, raw_total, percent_total, list_raw_total, read_raw_total) %>%
  gather(key, value, -ID, -country)

test_results_1_long

# A tibble: 352 x 4
      ID country key       value
   <dbl> <fct>   <chr>     <dbl>
 1   635 china   raw_total    38
 2   636 china   raw_total    32
 3   637 china   raw_total    32
 4   638 china   raw_total    49
 5   639 china   raw_total    38
 6   640 china   raw_total    36
 7   641 china   raw_total    37
 8   642 china   raw_total    39
 9   643 china   raw_total    37
10   644 china   raw_total    34
# … with 342 more rows
…
    Solution

read_1_an <- test_results_1 %>%
  select(., ID, contains("_read_"))%>%
  select(., ID, contains("_an")) %>%
  mutate(., read_an_raw = rowSums(.[2:12])) %>%
  select(ID, read_an_raw)

test_results_1 <- full_join(test_results_1, read_1_an, by = 'ID') 

test_1_raw <- select(test_results_1, ID, country, contains("raw"))

test_1_raw

# A tibble: 88 x 7
      ID country raw_total list_raw_total read_raw_total list_an_raw
   <dbl> <fct>       <dbl>          <dbl>          <dbl>       <dbl>
 1   635 china          38             20             18           2
 2   636 china          32             13             19           1
 3   637 china          32             20             12           2
 4   638 china          49             28             21           8
 5   639 china          38             20             18           6
 6   640 china          36             19             17           4
 7   641 china          37             16             21           5
 8   642 china          39             20             19           7
 9   643 china          37             20             17           4
10   644 china          34             20             14           5
# … with 78 more rows, and 1 more variable: read_an_raw <dbl>
…
